{
  "local": {
    "app": {
      "protocol": "http",
      "port": 5000,
      "host": "0.0.0.0",
      "cert": {
        "keyFile": "/Users/indra/Omar/CERTIFICADOS/server.key",
        "certFile": "/Users/indra/Omar/CERTIFICADOS/server.crt"
      },
      "cookieSecret": "secretssssss",
      "cookieName": "monster",
      "cookiemaxAge":600000,
      "domain": "localhost",
      "resave":false,
      "saveUninitialized":true,
      "proxy":false,
      "httpOnly":true,
      "signed":true,
      "secure":false,
      "corsOrigin":[
        "https://192.168.1.67:4200",
        "https://ocr-minsait.web.app",
        "https://ocr-totalplay.web.app",
        "https://demobioonboarding.z13.web.core.windows.net"
      ]
    },
    "oauthServer": {
      "url": "http://localhost:4206/oauth/token?grant_type=client_credentials&",
      "clientId": "fooClientIdPassword",
      "clientSecret": "secret",
      "grantType": "client_credentials"
    },
    "oauthToken": {
      "url": "http://localhost:9123/token-opaco/credential",
      "clientId": "root",
      "clientSecret": "toor",
      "grantType": "client_credentials"
    },
    "tokenOpacoValidator":{
      "url":"http://localhost:9123/token-opaco/validate-token"
    },
    "redis": {
      "host": "localhost",
      "port": 6379,
      "ttl": 86400
    },
    "backServices": {
      "dossier": {
        "direction": "https://ms-dossier.azurewebsites.net/dossier",
        "createExpedient": "/expedientes",
        "getExpedient": "/expedientes",
        "getIDValidas":"/expedientes/validas"
      },
      "document": {
        "direction": "https://ms-core-document.azurewebsites.net/documentos",
        "anverso": "/anversos",
        "reverso": "/reversos"
      },
      "selfie": {
        "direction": "https://ms-core.azurewebsites.net/biometrias",
        "serious": "/selfies",
        "smile": "/reversos"
      },
      "video": {
        "direction": "https://ms-core-video.azurewebsites.net/biometrias",
        "android": "/videos",
        "ios": "/videos/partFiles"
      },
      "chunks":{
        "direction":"http://localhost:8071/chunks",
        "add":"/fragmentos",
        "merge":"/asociaciones"
      }
    }
  },
  "development": {
    "app": {
      "protocol": "http",
      "port": 8080,
      "host": "0.0.0.0",
      "cert": {
        "keyFile": "./certs/localhost-privkey.pem",
        "certFile": "./certs/localhost-cert.pem"
      },
      "cookieSecret": "secretssssss",
      "cookieName": "monster",
      "cookiemaxAge": 1200000,
      "resave": false,
      "saveUninitialized": true,
      "proxy": false,
      "httpOnly": true,
      "signed": true,
      "secure": true,
      "domain": "https://bioonboarding-web-mx-secmgmt-pmi-authesrv-dev.appls.cto1.paas.gsnetcloud.corp",
      "corsOrigin": [
        "https://bioonboarding-web-mx-secmgmt-pmi-authesrv-dev.appls.cto1.paas.gsnetcloud.corp"
      ]
    },
    "redis": {
      "host": "redis-token",
      "port": 6379,
      "ttl": 86400
    }
  },
  "preproduction": {
    "app": {
      "protocol": "http",
      "port": 8080,
      "host": "0.0.0.0",
      "cert": {
        "keyFile": "./certs/localhost-privkey.pem",
        "certFile": "./certs/localhost-cert.pem"
      },
      "cookieSecret": "secretssssss",
      "cookieName": "monster",
      "cookiemaxAge": 1200000,
      "resave": false,
      "saveUninitialized": true,
      "proxy": false,
      "httpOnly": true,
      "signed": true,
      "secure": true,
      "domain": "https://bioonboarding-web-mx-secmgmt-pmi-authesrv-pre.appls.cto1.paas.gsnetcloud.corp",
      "corsOrigin": [
        "https://bioonboarding-web-mx-secmgmt-pmi-authesrv-pre.appls.cto1.paas.gsnetcloud.corp"
      ]
    },
    "redis": {
      "host": "redis-token",
      "port": 6379,
      "ttl": 86400
    }
  },
  "production": {
    "app": {
      "protocol": "http",
      "port": 5000,
      "host": "0.0.0.0",
      "cert": {
        "keyFile": "/Users/indra/Omar/CERTIFICADOS/server.key",
        "certFile": "/Users/indra/Omar/CERTIFICADOS/server.crt"
      },
      "cookieSecret": "secretssssss",
      "cookieName": "monster",
      "cookiemaxAge":600000,
      "domain": "localhost",
      "resave":false,
      "saveUninitialized":true,
      "proxy":false,
      "httpOnly":true,
      "signed":true,
      "secure":false,
      "corsOrigin":[
        "https://192.168.1.67:4200",
        "https://ocr-totalplay.web.app"
      ]
    },
    "oauthServer": {
      "url": "http://localhost:4206/oauth/token?grant_type=client_credentials&",
      "clientId": "fooClientIdPassword",
      "clientSecret": "secret",
      "grantType": "client_credentials"
    },
    "oauthToken": {
      "url": "http://localhost:9123/token-opaco/credential",
      "clientId": "root",
      "clientSecret": "toor",
      "grantType": "client_credentials"
    },
    "tokenOpacoValidator":{
      "url":"http://localhost:9123/token-opaco/validate-token"
    },
    "redis": {
      "host": "localhost",
      "port": 6379,
      "ttl": 86400
    },
    "backServices": {
      "dossier": {
        "direction": "http://onboarding.ddns.net:8082/dossier",
        "createExpedient": "/expedientes",
        "getExpedient": "/expedientes"
      },
      "document": {
        "direction": "http://onboarding.ddns.net:8083/documentos",
        "anverso": "/anversos",
        "reverso": "/reversos"
      },
      "selfie": {
        "direction": "http://onboarding.ddns.net:8084/biometrias",
        "serious": "/selfies",
        "smile": "/reversos"
      },
      "video": {
        "direction": "http://onboarding.ddns.net:8085/biometrias",
        "android": "/videos",
        "ios": "/videos/partFiles"
      },
      "chunks":{
        "direction":"http://localhost:8071/chunks",
        "add":"/fragmentos",
        "merge":"/asociaciones"
      }
    }
  }
}
